[gd_scene load_steps=5 format=2]

[ext_resource path="res://Assets/kenney_platformerpack/PNG/Enemies/bee.png" type="Texture" id=1]
[ext_resource path="res://Assets/kenney_platformerpack/PNG/Enemies/bee_move.png" type="Texture" id=2]

[sub_resource type="SpriteFrames" id=1]
animations = [ {
"frames": [ ExtResource( 1 ), ExtResource( 2 ) ],
"loop": true,
"name": "bee",
"speed": 4.0
} ]

[sub_resource type="RectangleShape2D" id=2]
extents = Vector2( 52.9109, 43.7735 )

[node name="Bee" type="RigidBody2D"]

[node name="AnimatedSprite" type="AnimatedSprite" parent="."]
frames = SubResource( 1 )
animation = "bee"
playing = true

[node name="CollisionShape2D" type="CollisionShape2D" parent="."]
position = Vector2( 0, 1.78381 )
shape = SubResource( 2 )

[node name="VisibilityEnabler2D" type="VisibilityEnabler2D" parent="."]
